coMethTF: estimating regulatory potential of DNA methylation changes in epigenome-wide association studies • coMethTF
…
# Map probes to nearest gene
region.target.closest <- get_region_target_gene(
    regions.gr = probes.gr,
    genome = "hg38",
    method = "closest.gene"
)
#> Mapping regions to the closest gene
dim(region.target.closest)
#> [1] 988   3
region.target.closest
#> # A tibble: 988 x 3
#>    regionID                target_gene_name target         
#>    <chr>                   <chr>            <chr>          
#>  1 chr21:10520974-10520975 TPTE             ENSG00000274391
#>  2 chr21:10521044-10521045 TPTE             ENSG00000274391
#>  3 chr21:10521122-10521123 TPTE             ENSG00000274391
#>  4 chr21:10521553-10521554 TPTE             ENSG00000274391
#>  5 chr21:14063939-14063940 ANKRD20A18P      ENSG00000249493
#>  6 chr21:14070786-14070787 RNA5SP488        ENSG00000201812
#>  7 chr21:14071916-14071917 RNA5SP488        ENSG00000201812
#>  8 chr21:14215491-14215492 RBM11            ENSG00000185272
#>  9 chr21:14216042-14216043 RBM11            ENSG00000185272
#> 10 chr21:14216051-14216052 RBM11            ENSG00000185272
#> # … with 978 more rows
…
dim(region.target.window)
#> [1] 12916     3
region.target.window
#> # A tibble: 12,916 x 3
#>    regionID                target          target_gene_name
#>    <chr>                   <chr>           <chr>           
#>  1 chr21:10450634-10450635 ENSG00000275945 EIF3FP1         
#>  2 chr21:10450634-10450635 ENSG00000275592 VN1R7P          
#>  3 chr21:10450634-10450635 ENSG00000278106 AF254983.2      
#>  4 chr21:10450634-10450635 ENSG00000187172 BAGE2           
#>  5 chr21:10450634-10450635 ENSG00000273840 AF254983.1      
#>  6 chr21:10450634-10450635 ENSG00000274391 TPTE            
#>  7 chr21:10450634-10450635 ENSG00000278678 CYCSP41         
#>  8 chr21:10616676-10616677 ENSG00000278106 AF254983.2      
#>  9 chr21:10616676-10616677 ENSG00000187172 BAGE2           
#> 10 chr21:10616676-10616677 ENSG00000273840 AF254983.1      
#> # … with 12,906 more rows
…
dim(region.target.window)
#> [1] 12916     3
region.target.window
#> # A tibble: 12,916 x 3
#>    regionID                target          target_gene_name
#>    <chr>                   <chr>           <chr>           
#>  1 chr21:10450634-10450635 ENSG00000275945 EIF3FP1         
#>  2 chr21:10450634-10450635 ENSG00000275592 VN1R7P          
#>  3 chr21:10450634-10450635 ENSG00000278106 AF254983.2      
#>  4 chr21:10450634-10450635 ENSG00000187172 BAGE2           
#>  5 chr21:10450634-10450635 ENSG00000273840 AF254983.1      
#>  6 chr21:10450634-10450635 ENSG00000274391 TPTE            
#>  7 chr21:10450634-10450635 ENSG00000278678 CYCSP41         
#>  8 chr21:10616676-10616677 ENSG00000278106 AF254983.2      
#>  9 chr21:10616676-10616677 ENSG00000187172 BAGE2           
#> 10 chr21:10616676-10616677 ENSG00000273840 AF254983.1      
#> # … with 12,906 more rows
…
