MethReg: estimating regulatory potential of DNA methylation changes in epigenome-wide association studies • MethReg
…
# Map probes to nearest gene
region.target.closest <- get_region_target_gene(
    regions.gr = probes.gr,
    genome = "hg38",
    method = "genes.promoter.overlap",
    promoter.upstream.dist.tss = 2000,
    promoter.downstream.dist.tss = 2000
)
#> Mapping regions to the closest gene
dim(region.target.closest)
#> [1] 1955    3
region.target.closest
#> # A tibble: 1,955 x 3
#>    regionID                target_gene_name target         
#>    <chr>                   <chr>            <chr>          
#>  1 chr21:10520974-10520975 TPTE             ENSG00000274391
#>  2 chr21:10521044-10521045 TPTE             ENSG00000274391
#>  3 chr21:10521122-10521123 TPTE             ENSG00000274391
#>  4 chr21:10521553-10521554 TPTE             ENSG00000274391
#>  5 chr21:14027669-14027670 AP001347.1       ENSG00000224905
#>  6 chr21:14063939-14063940 ANKRD20A18P      ENSG00000249493
#>  7 chr21:14070786-14070787 RNA5SP488        ENSG00000201812
#>  8 chr21:14071916-14071917 RNA5SP488        ENSG00000201812
#>  9 chr21:14215491-14215492 RBM11            ENSG00000185272
#> 10 chr21:14216042-14216043 RBM11            ENSG00000185272
#> # … with 1,945 more rows
…
dim(region.target.window)
#> [1] 25610     3
region.target.window
#> # A tibble: 25,610 x 3
#>    regionID                target          target_gene_name
#>    <chr>                   <chr>           <chr>           
#>  1 chr21:10450634-10450635 ENSG00000277693 AP003900.1      
#>  2 chr21:10450634-10450635 ENSG00000275945 EIF3FP1         
#>  3 chr21:10450634-10450635 ENSG00000275592 VN1R7P          
#>  4 chr21:10450634-10450635 ENSG00000278106 AF254983.2      
#>  5 chr21:10450634-10450635 ENSG00000187172 BAGE2           
#>  6 chr21:10450634-10450635 ENSG00000273840 AF254983.1      
#>  7 chr21:10450634-10450635 ENSG00000274391 TPTE            
#>  8 chr21:10450634-10450635 ENSG00000278678 CYCSP41         
#>  9 chr21:10450634-10450635 ENSG00000273872 SLC25A15P4      
#> 10 chr21:10450634-10450635 ENSG00000276556 AF254982.1      
#> # … with 25,600 more rows
…
dim(region.target.window)
#> [1] 25610     3
region.target.window
#> # A tibble: 25,610 x 3
#>    regionID                target          target_gene_name
#>    <chr>                   <chr>           <chr>           
#>  1 chr21:10450634-10450635 ENSG00000277693 AP003900.1      
#>  2 chr21:10450634-10450635 ENSG00000275945 EIF3FP1         
#>  3 chr21:10450634-10450635 ENSG00000275592 VN1R7P          
#>  4 chr21:10450634-10450635 ENSG00000278106 AF254983.2      
#>  5 chr21:10450634-10450635 ENSG00000187172 BAGE2           
#>  6 chr21:10450634-10450635 ENSG00000273840 AF254983.1      
#>  7 chr21:10450634-10450635 ENSG00000274391 TPTE            
#>  8 chr21:10450634-10450635 ENSG00000278678 CYCSP41         
#>  9 chr21:10450634-10450635 ENSG00000273872 SLC25A15P4      
#> 10 chr21:10450634-10450635 ENSG00000276556 AF254982.1      
#> # … with 25,600 more rows
…
